{"pagination":{"last_visible_page":68,"has_next_page":true,"current_page":1,"items":{"count":10,"total":673,"per_page":10}},"data":[{"mal_id":61831,"url":"https:\/\/myanimelist.net\/anime\/61831\/Saikyou_no_Ousama_Nidome_no_Jinsei_wa_Nani_wo_Suru_Season_2","images":{"jpg":{"image_url":"https:\/\/myanimelist.net\/images\/anime\/1738\/156028.jpg","small_image_url":"https:\/\/myanimelist.net\/images\/anime\/1738\/156028t.jpg","large_image_url":"https:\/\/myanimelist.net\/images\/anime\/1738\/156028l.jpg"},"webp":{"image_url":"https:\/\/myanimelist.net\/images\/anime\/1738\/156028.webp","small_image_url":"https:\/\/myanimelist.net\/images\/anime\/1738\/156028t.webp","large_image_url":"https:\/\/myanimelist.net\/images\/anime\/1738\/156028l.webp"}},"trailer":{"youtube_id":null,"url":null,"embed_url":"https:\/\/www.youtube-nocookie.com\/embed\/embD4ae1ufk?enablejsapi=1&wmode=opaque&autoplay=1","images":{"image_url":null,"small_image_url":null,"medium_image_url":null,"large_image_url":null,"maximum_image_url":null}},"approved":true,"titles":[{"type":"Default","title":"Saikyou no Ousama, Nidome no Jinsei wa Nani wo Suru? Season 2"},{"type":"Synonym","title":"TBATE"},{"type":"Japanese","title":"\u6700\u5f37\u306e\u738b\u69d8\u3001\u4e8c\u5ea6\u76ee\u306e\u4eba\u751f\u306f\u4f55\u3092\u3059\u308b? Season2"},{"type":"English","title":"The Beginning After the End Season 2"}],"title":"Saikyou no Ousama, Nidome no Jinsei wa Nani wo Suru? Season 2","title_english":"The Beginning After the End Season 2","title_japanese":"\u6700\u5f37\u306e\u738b\u69d8\u3001\u4e8c\u5ea6\u76ee\u306e\u4eba\u751f\u306f\u4f55\u3092\u3059\u308b? Season2","title_synonyms":["TBATE"],"type":"TV","source":"Other","episodes":null,"status":"Not yet aired","airing":false,"aired":{"from":"2026-04-01T00:00:00+00:00","to":null,"prop":{"from":{"day":1,"month":4,"year":2026},"to":{"day":null,"month":null,"year":null}},"string":"Apr 1, 2026 to ?"},"duration":"Unknown","rating":"PG-13 - Teens 13 or older","score":null,"scored_by":null,"rank":null,"popularity":4300,"members":35259,"favorites":79,"synopsis":"Second season of Saikyou no Ousama, Nidome no Jinsei wa Nani wo Suru?.","background":"Saikyou no Ousama, Nidome no Jinsei wa Nani wo Suru? Season 2 aired on Fuji TV's +Ultra block.","season":"spring","year":2026,"broadcast":{"day":"Wednesdays","time":"23:30","timezone":"Asia\/Tokyo","string":"Wednesdays at 23:30 (JST)"},"producers":[{"mal_id":735,"type":"anime","name":"Slow Curve","url":"https:\/\/myanimelist.net\/anime\/producer\/735\/Slow_Curve"}],"licensors":[],"studios":[{"mal_id":1209,"type":"anime","name":"Studio A-CAT","url":"https:\/\/myanimelist.net\/anime\/producer\/1209\/Studio_A-CAT"}],"genres":[{"mal_id":10,"type":"anime","name":"Fantasy","url":"https:\/\/myanimelist.net\/anime\/genre\/10\/Fantasy"}],"explicit_genres":[],"themes":[{"mal_id":62,"type":"anime","name":"Isekai","url":"https:\/\/myanimelist.net\/anime\/genre\/62\/Isekai"},{"mal_id":72,"type":"anime","name":"Reincarnation","url":"https:\/\/myanimelist.net\/anime\/genre\/72\/Reincarnation"}],"demographics":[]},{"mal_id":61325,"url":"https:\/\/myanimelist.net\/anime\/61325\/Douse_Koishite_Shimaunda_2nd_Season","images":{"jpg":{"image_url":"https:\/\/myanimelist.net\/images\/anime\/1054\/153719.jpg","small_image_url":"https:\/\/myanimelist.net\/images\/anime\/1054\/153719t.jpg","large_image_url":"https:\/\/myanimelist.net\/images\/anime\/1054\/153719l.jpg"},"webp":{"image_url":"https:\/\/myanimelist.net\/images\/anime\/1054\/153719.webp","small_image_url":"https:\/\/myanimelist.net\/images\/anime\/1054\/153719t.webp","large_image_url":"https:\/\/myanimelist.net\/images\/anime\/1054\/153719l.webp"}},"trailer":{"youtube_id":null,"url":null,"embed_url":"https:\/\/www.youtube-nocookie.com\/embed\/ZBBQeTbUs5I?enablejsapi=1&wmode=opaque&autoplay=1","images":{"image_url":null,"small_image_url":null,"medium_image_url":null,"large_image_url":null,"maximum_image_url":null}},"approved":true,"titles":[{"type":"Default","title":"Douse, Koishite Shimaunda. 2nd Season"},{"type":"Synonym","title":"Anyway"},{"type":"Synonym","title":"I Will Fall in Love with You"},{"type":"Synonym","title":"Koishima"},{"type":"Japanese","title":"\u3069\u3046\u305b\u3001\u604b\u3057\u3066\u3057\u307e\u3046\u3093\u3060\u3002\u7b2c2\u671f"},{"type":"English","title":"Anyway, I'm Falling in Love with You. Season 2"}],"title":"Douse, Koishite Shimaunda. 2nd Season","title_english":"Anyway, I'm Falling in Love with You. Season 2","title_japanese":"\u3069\u3046\u305b\u3001\u604b\u3057\u3066\u3057\u307e\u3046\u3093\u3060\u3002\u7b2c2\u671f","title_synonyms":["Anyway","I Will Fall in Love with You","Koishima"],"type":"TV","source":"Manga","episodes":12,"status":"Currently Airing","airing":true,"aired":{"from":"2026-01-09T00:00:00+00:00","to":"2026-03-27T00:00:00+00:00","prop":{"from":{"day":9,"month":1,"year":2026},"to":{"day":27,"month":3,"year":2026}},"string":"Jan 9, 2026 to Mar 27, 2026"},"duration":"24 min per ep","rating":"PG-13 - Teens 13 or older","score":6.44,"scored_by":1287,"rank":8120,"popularity":6615,"members":12282,"favorites":28,"synopsis":"As seasons have passed, Mizuho Nishino's adolescence has been full of ups and downs. With Christmas approaching, she intends to celebrate the special event with all of her four childhood friends: Kizuki Hazawa, Shin Kashiwagi, Airu Izumi, and Shuugo Hoshikawa. However, Kizuki makes the first move when he declares that he wants to spend the time alone with Mizuho. Although hesitant at first, Mizuho ends up confiding in him and declares Kizuki to be her boyfriend!\n\nThe news about Mizuho and Kizuki spreads quickly and brings forth Shin and Airu, who have had a difficult time accepting their feelings for the one they love. With the friend group faced with a delicate situation they have never confronted before, only time will tell if the new romance and old friendships can survive.\n\n[Written by MAL Rewrite]","background":"","season":"winter","year":2026,"broadcast":{"day":"Fridays","time":"01:28","timezone":"Asia\/Tokyo","string":"Fridays at 01:28 (JST)"},"producers":[{"mal_id":159,"type":"anime","name":"Kodansha","url":"https:\/\/myanimelist.net\/anime\/producer\/159\/Kodansha"},{"mal_id":1255,"type":"anime","name":"Glovision","url":"https:\/\/myanimelist.net\/anime\/producer\/1255\/Glovision"},{"mal_id":1397,"type":"anime","name":"Universal Music Japan","url":"https:\/\/myanimelist.net\/anime\/producer\/1397\/Universal_Music_Japan"},{"mal_id":1416,"type":"anime","name":"BS11","url":"https:\/\/myanimelist.net\/anime\/producer\/1416\/BS11"},{"mal_id":1468,"type":"anime","name":"Crunchyroll","url":"https:\/\/myanimelist.net\/anime\/producer\/1468\/Crunchyroll"},{"mal_id":1585,"type":"anime","name":"Nichion","url":"https:\/\/myanimelist.net\/anime\/producer\/1585\/Nichion"},{"mal_id":1986,"type":"anime","name":"arma bianca","url":"https:\/\/myanimelist.net\/anime\/producer\/1986\/arma_bianca"},{"mal_id":2111,"type":"anime","name":"Pia","url":"https:\/\/myanimelist.net\/anime\/producer\/2111\/Pia"},{"mal_id":2751,"type":"anime","name":"Happinet Media Marketing","url":"https:\/\/myanimelist.net\/anime\/producer\/2751\/Happinet_Media_Marketing"}],"licensors":[],"studios":[{"mal_id":1340,"type":"anime","name":"Typhoon Graphics","url":"https:\/\/myanimelist.net\/anime\/producer\/1340\/Typhoon_Graphics"}],"genres":[{"mal_id":8,"type":"anime","name":"Drama","url":"https:\/\/myanimelist.net\/anime\/genre\/8\/Drama"},{"mal_id":22,"type":"anime","name":"Romance","url":"https:\/\/myanimelist.net\/anime\/genre\/22\/Romance"}],"explicit_genres":[],"themes":[{"mal_id":73,"type":"anime","name":"Reverse Harem","url":"https:\/\/myanimelist.net\/anime\/genre\/73\/Reverse_Harem"},{"mal_id":23,"type":"anime","name":"School","url":"https:\/\/myanimelist.net\/anime\/genre\/23\/School"}],"demographics":[{"mal_id":25,"type":"anime","name":"Shoujo","url":"https:\/\/myanimelist.net\/anime\/genre\/25\/Shoujo"}]},{"mal_id":62557,"url":"https:\/\/myanimelist.net\/anime\/62557\/Koikeya_SDGs_Gekijou_Suss_to_Tina_Season_2","images":{"jpg":{"image_url":"https:\/\/myanimelist.net\/images\/anime\/1562\/152205.jpg","small_image_url":"https:\/\/myanimelist.net\/images\/anime\/1562\/152205t.jpg","large_image_url":"https:\/\/myanimelist.net\/images\/anime\/1562\/152205l.jpg"},"webp":{"image_url":"https:\/\/myanimelist.net\/images\/anime\/1562\/152205.webp","small_image_url":"https:\/\/myanimelist.net\/images\/anime\/1562\/152205t.webp","large_image_url":"https:\/\/myanimelist.net\/images\/anime\/1562\/152205l.webp"}},"trailer":{"youtube_id":null,"url":null,"embed_url":null,"images":{"image_url":null,"small_image_url":null,"medium_image_url":null,"large_image_url":null,"maximum_image_url":null}},"approved":true,"titles":[{"type":"Default","title":"Koikeya SDGs Gekijou Suss to Tina Season 2"},{"type":"Japanese","title":"\u6e56\u6c60\u5c4bSDGs\u5287\u5834 \u30b5\u30b9\u3068\u30c6\u30ca \u30b7\u30fc\u30ba\u30f3\uff12"},{"type":"English","title":"Koikeya SDGs Theater Suss & Tina Season 2"}],"title":"Koikeya SDGs Gekijou Suss to Tina Season 2","title_english":"Koikeya SDGs Theater Suss & Tina Season 2","title_japanese":"\u6e56\u6c60\u5c4bSDGs\u5287\u5834 \u30b5\u30b9\u3068\u30c6\u30ca \u30b7\u30fc\u30ba\u30f3\uff12","title_synonyms":[],"type":"TV","source":"Original","episodes":13,"status":"Finished Airing","airing":false,"aired":{"from":"2022-04-03T00:00:00+00:00","to":"2022-06-26T00:00:00+00:00","prop":{"from":{"day":3,"month":4,"year":2022},"to":{"day":26,"month":6,"year":2022}},"string":"Apr 3, 2022 to Jun 26, 2022"},"duration":"3 min per ep","rating":"G - All Ages","score":null,"scored_by":null,"rank":17880,"popularity":28796,"members":87,"favorites":0,"synopsis":"Season season of Koikeya SDGs Gekijou Suss to Tina.","background":"","season":"spring","year":2022,"broadcast":{"day":"Sundays","time":"11:56","timezone":"Asia\/Tokyo","string":"Sundays at 11:56 (JST)"},"producers":[],"licensors":[],"studios":[{"mal_id":3205,"type":"anime","name":"Garage Film","url":"https:\/\/myanimelist.net\/anime\/producer\/3205\/Garage_Film"}],"genres":[{"mal_id":1,"type":"anime","name":"Action","url":"https:\/\/myanimelist.net\/anime\/genre\/1\/Action"},{"mal_id":4,"type":"anime","name":"Comedy","url":"https:\/\/myanimelist.net\/anime\/genre\/4\/Comedy"}],"explicit_genres":[],"themes":[{"mal_id":31,"type":"anime","name":"Super Power","url":"https:\/\/myanimelist.net\/anime\/genre\/31\/Super_Power"}],"demographics":[]},{"mal_id":62454,"url":"https:\/\/myanimelist.net\/anime\/62454\/Tobot__Daedosiui_Yeongungdeul_Season_2_Part_3","images":{"jpg":{"image_url":"https:\/\/myanimelist.net\/images\/anime\/1623\/151974.jpg","small_image_url":"https:\/\/myanimelist.net\/images\/anime\/1623\/151974t.jpg","large_image_url":"https:\/\/myanimelist.net\/images\/anime\/1623\/151974l.jpg"},"webp":{"image_url":"https:\/\/myanimelist.net\/images\/anime\/1623\/151974.webp","small_image_url":"https:\/\/myanimelist.net\/images\/anime\/1623\/151974t.webp","large_image_url":"https:\/\/myanimelist.net\/images\/anime\/1623\/151974l.webp"}},"trailer":{"youtube_id":null,"url":null,"embed_url":null,"images":{"image_url":null,"small_image_url":null,"medium_image_url":null,"large_image_url":null,"maximum_image_url":null}},"approved":true,"titles":[{"type":"Default","title":"Tobot: Daedosiui Yeongungdeul Season 2 Part 3"},{"type":"Japanese","title":"\ub610\ubd07 : \ub300\ub3c4\uc2dc\uc758 \uc601\uc6c5\ub4e4 \uc2dc\uc98c2 \ud30c\ud2b8 3"}],"title":"Tobot: Daedosiui Yeongungdeul Season 2 Part 3","title_english":null,"title_japanese":"\ub610\ubd07 : \ub300\ub3c4\uc2dc\uc758 \uc601\uc6c5\ub4e4 \uc2dc\uc98c2 \ud30c\ud2b8 3","title_synonyms":[],"type":"TV","source":"Original","episodes":8,"status":"Finished Airing","airing":false,"aired":{"from":"2024-10-25T00:00:00+00:00","to":"2024-12-13T00:00:00+00:00","prop":{"from":{"day":25,"month":10,"year":2024},"to":{"day":13,"month":12,"year":2024}},"string":"Oct 25, 2024 to Dec 13, 2024"},"duration":"11 min per ep","rating":"PG - Children","score":null,"scored_by":null,"rank":20924,"popularity":29355,"members":79,"favorites":0,"synopsis":null,"background":"","season":"fall","year":2024,"broadcast":{"day":null,"time":null,"timezone":null,"string":"Unknown"},"producers":[],"licensors":[],"studios":[],"genres":[{"mal_id":24,"type":"anime","name":"Sci-Fi","url":"https:\/\/myanimelist.net\/anime\/genre\/24\/Sci-Fi"}],"explicit_genres":[],"themes":[{"mal_id":18,"type":"anime","name":"Mecha","url":"https:\/\/myanimelist.net\/anime\/genre\/18\/Mecha"}],"demographics":[{"mal_id":15,"type":"anime","name":"Kids","url":"https:\/\/myanimelist.net\/anime\/genre\/15\/Kids"}]},{"mal_id":62453,"url":"https:\/\/myanimelist.net\/anime\/62453\/Tobot__Daedosiui_Yeongungdeul_Season_2_Part_2","images":{"jpg":{"image_url":"https:\/\/myanimelist.net\/images\/anime\/1721\/151973.jpg","small_image_url":"https:\/\/myanimelist.net\/images\/anime\/1721\/151973t.jpg","large_image_url":"https:\/\/myanimelist.net\/images\/anime\/1721\/151973l.jpg"},"webp":{"image_url":"https:\/\/myanimelist.net\/images\/anime\/1721\/151973.webp","small_image_url":"https:\/\/myanimelist.net\/images\/anime\/1721\/151973t.webp","large_image_url":"https:\/\/myanimelist.net\/images\/anime\/1721\/151973l.webp"}},"trailer":{"youtube_id":null,"url":null,"embed_url":null,"images":{"image_url":null,"small_image_url":null,"medium_image_url":null,"large_image_url":null,"maximum_image_url":null}},"approved":true,"titles":[{"type":"Default","title":"Tobot: Daedosiui Yeongungdeul Season 2 Part 2"},{"type":"Japanese","title":"\ub610\ubd07 : \ub300\ub3c4\uc2dc\uc758 \uc601\uc6c5\ub4e4 \uc2dc\uc98c2 \ud30c\ud2b8 2"}],"title":"Tobot: Daedosiui Yeongungdeul Season 2 Part 2","title_english":null,"title_japanese":"\ub610\ubd07 : \ub300\ub3c4\uc2dc\uc758 \uc601\uc6c5\ub4e4 \uc2dc\uc98c2 \ud30c\ud2b8 2","title_synonyms":[],"type":"TV","source":"Original","episodes":8,"status":"Finished Airing","airing":false,"aired":{"from":"2024-07-05T00:00:00+00:00","to":"2023-08-23T00:00:00+00:00","prop":{"from":{"day":5,"month":7,"year":2024},"to":{"day":23,"month":8,"year":2023}},"string":"Jul 5, 2024 to Aug 23, 2023"},"duration":"11 min per ep","rating":"PG - Children","score":null,"scored_by":null,"rank":20923,"popularity":29354,"members":79,"favorites":0,"synopsis":null,"background":"","season":"summer","year":2024,"broadcast":{"day":null,"time":null,"timezone":null,"string":"Unknown"},"producers":[],"licensors":[],"studios":[],"genres":[{"mal_id":24,"type":"anime","name":"Sci-Fi","url":"https:\/\/myanimelist.net\/anime\/genre\/24\/Sci-Fi"}],"explicit_genres":[],"themes":[{"mal_id":18,"type":"anime","name":"Mecha","url":"https:\/\/myanimelist.net\/anime\/genre\/18\/Mecha"}],"demographics":[{"mal_id":15,"type":"anime","name":"Kids","url":"https:\/\/myanimelist.net\/anime\/genre\/15\/Kids"}]},{"mal_id":62452,"url":"https:\/\/myanimelist.net\/anime\/62452\/Tobot__Daedosiui_Yeongungdeul_Season_2","images":{"jpg":{"image_url":"https:\/\/myanimelist.net\/images\/anime\/1157\/151972.jpg","small_image_url":"https:\/\/myanimelist.net\/images\/anime\/1157\/151972t.jpg","large_image_url":"https:\/\/myanimelist.net\/images\/anime\/1157\/151972l.jpg"},"webp":{"image_url":"https:\/\/myanimelist.net\/images\/anime\/1157\/151972.webp","small_image_url":"https:\/\/myanimelist.net\/images\/anime\/1157\/151972t.webp","large_image_url":"https:\/\/myanimelist.net\/images\/anime\/1157\/151972l.webp"}},"trailer":{"youtube_id":null,"url":null,"embed_url":null,"images":{"image_url":null,"small_image_url":null,"medium_image_url":null,"large_image_url":null,"maximum_image_url":null}},"approved":true,"titles":[{"type":"Default","title":"Tobot: Daedosiui Yeongungdeul Season 2"},{"type":"Japanese","title":"\ub610\ubd07 : \ub300\ub3c4\uc2dc\uc758 \uc601\uc6c5\ub4e4 \uc2dc\uc98c2"}],"title":"Tobot: Daedosiui Yeongungdeul Season 2","title_english":null,"title_japanese":"\ub610\ubd07 : \ub300\ub3c4\uc2dc\uc758 \uc601\uc6c5\ub4e4 \uc2dc\uc98c2","title_synonyms":[],"type":"TV","source":"Original","episodes":8,"status":"Finished Airing","airing":false,"aired":{"from":"2024-03-08T00:00:00+00:00","to":"2024-04-26T00:00:00+00:00","prop":{"from":{"day":8,"month":3,"year":2024},"to":{"day":26,"month":4,"year":2024}},"string":"Mar 8, 2024 to Apr 26, 2024"},"duration":"11 min per ep","rating":"PG - Children","score":null,"scored_by":null,"rank":20923,"popularity":29259,"members":82,"favorites":0,"synopsis":null,"background":"","season":"spring","year":2024,"broadcast":{"day":null,"time":null,"timezone":null,"string":"Unknown"},"producers":[],"licensors":[],"studios":[],"genres":[{"mal_id":24,"type":"anime","name":"Sci-Fi","url":"https:\/\/myanimelist.net\/anime\/genre\/24\/Sci-Fi"}],"explicit_genres":[],"themes":[{"mal_id":18,"type":"anime","name":"Mecha","url":"https:\/\/myanimelist.net\/anime\/genre\/18\/Mecha"}],"demographics":[{"mal_id":15,"type":"anime","name":"Kids","url":"https:\/\/myanimelist.net\/anime\/genre\/15\/Kids"}]},{"mal_id":62231,"url":"https:\/\/myanimelist.net\/anime\/62231\/Jochum_Season_2","images":{"jpg":{"image_url":"https:\/\/myanimelist.net\/images\/anime\/1017\/151409.jpg","small_image_url":"https:\/\/myanimelist.net\/images\/anime\/1017\/151409t.jpg","large_image_url":"https:\/\/myanimelist.net\/images\/anime\/1017\/151409l.jpg"},"webp":{"image_url":"https:\/\/myanimelist.net\/images\/anime\/1017\/151409.webp","small_image_url":"https:\/\/myanimelist.net\/images\/anime\/1017\/151409t.webp","large_image_url":"https:\/\/myanimelist.net\/images\/anime\/1017\/151409l.webp"}},"trailer":{"youtube_id":null,"url":null,"embed_url":"https:\/\/www.youtube-nocookie.com\/embed\/qU4sg5Wikzw?enablejsapi=1&wmode=opaque&autoplay=1","images":{"image_url":null,"small_image_url":null,"medium_image_url":null,"large_image_url":null,"maximum_image_url":null}},"approved":true,"titles":[{"type":"Default","title":"Jochum Season 2"},{"type":"Japanese","title":"\u30b8\u30a7\u30aa\u30c1\u30e3\u30e0 \u30b7\u30fc\u30ba\u30f32"}],"title":"Jochum Season 2","title_english":null,"title_japanese":"\u30b8\u30a7\u30aa\u30c1\u30e3\u30e0 \u30b7\u30fc\u30ba\u30f32","title_synonyms":[],"type":"TV","source":"Original","episodes":24,"status":"Finished Airing","airing":false,"aired":{"from":"2025-10-04T00:00:00+00:00","to":"2026-03-21T00:00:00+00:00","prop":{"from":{"day":4,"month":10,"year":2025},"to":{"day":21,"month":3,"year":2026}},"string":"Oct 4, 2025 to Mar 21, 2026"},"duration":"1 min per ep","rating":"G - All Ages","score":null,"scored_by":null,"rank":17508,"popularity":20477,"members":347,"favorites":2,"synopsis":"Second season of Jochum.","background":"","season":"fall","year":2025,"broadcast":{"day":"Saturdays","time":"06:00","timezone":"Asia\/Tokyo","string":"Saturdays at 06:00 (JST)"},"producers":[{"mal_id":150,"type":"anime","name":"Sanrio","url":"https:\/\/myanimelist.net\/anime\/producer\/150\/Sanrio"}],"licensors":[],"studios":[{"mal_id":866,"type":"anime","name":"Fanworks","url":"https:\/\/myanimelist.net\/anime\/producer\/866\/Fanworks"}],"genres":[{"mal_id":36,"type":"anime","name":"Slice of Life","url":"https:\/\/myanimelist.net\/anime\/genre\/36\/Slice_of_Life"}],"explicit_genres":[],"themes":[{"mal_id":51,"type":"anime","name":"Anthropomorphic","url":"https:\/\/myanimelist.net\/anime\/genre\/51\/Anthropomorphic"}],"demographics":[]},{"mal_id":61931,"url":"https:\/\/myanimelist.net\/anime\/61931\/Higeki_no_Genkyou_to_Naru_Saikyou_Gedou_Last_Boss_Joou_wa_Tami_no_Tame_ni_Tsukushimasu_Season_2","images":{"jpg":{"image_url":"https:\/\/myanimelist.net\/images\/anime\/1916\/155657.jpg","small_image_url":"https:\/\/myanimelist.net\/images\/anime\/1916\/155657t.jpg","large_image_url":"https:\/\/myanimelist.net\/images\/anime\/1916\/155657l.jpg"},"webp":{"image_url":"https:\/\/myanimelist.net\/images\/anime\/1916\/155657.webp","small_image_url":"https:\/\/myanimelist.net\/images\/anime\/1916\/155657t.webp","large_image_url":"https:\/\/myanimelist.net\/images\/anime\/1916\/155657l.webp"}},"trailer":{"youtube_id":null,"url":null,"embed_url":"https:\/\/www.youtube-nocookie.com\/embed\/_chyPhcWf3E?enablejsapi=1&wmode=opaque&autoplay=1","images":{"image_url":null,"small_image_url":null,"medium_image_url":null,"large_image_url":null,"maximum_image_url":null}},"approved":true,"titles":[{"type":"Default","title":"Higeki no Genkyou to Naru Saikyou Gedou Last Boss Joou wa Tami no Tame ni Tsukushimasu. Season 2"},{"type":"Synonym","title":"The Most Heretical Last Boss Queen Who Will Become the Source of Tragedy Will Devote Herself for the Sake of the People"},{"type":"Synonym","title":"Lastame"},{"type":"Japanese","title":"\u60b2\u5287\u306e\u5143\u51f6\u3068\u306a\u308b\u6700\u5f37\u5916\u9053\u30e9\u30b9\u30dc\u30b9\u5973\u738b\u306f\u6c11\u306e\u70ba\u306b\u5c3d\u304f\u3057\u307e\u3059\u3002Season2"},{"type":"English","title":"The Most Heretical Last Boss Queen: From Villainess to Savior Season 2"}],"title":"Higeki no Genkyou to Naru Saikyou Gedou Last Boss Joou wa Tami no Tame ni Tsukushimasu. Season 2","title_english":"The Most Heretical Last Boss Queen: From Villainess to Savior Season 2","title_japanese":"\u60b2\u5287\u306e\u5143\u51f6\u3068\u306a\u308b\u6700\u5f37\u5916\u9053\u30e9\u30b9\u30dc\u30b9\u5973\u738b\u306f\u6c11\u306e\u70ba\u306b\u5c3d\u304f\u3057\u307e\u3059\u3002Season2","title_synonyms":["The Most Heretical Last Boss Queen Who Will Become the Source of Tragedy Will Devote Herself for the Sake of the People","Lastame"],"type":"TV","source":"Light novel","episodes":null,"status":"Not yet aired","airing":false,"aired":{"from":"2026-04-07T00:00:00+00:00","to":null,"prop":{"from":{"day":7,"month":4,"year":2026},"to":{"day":null,"month":null,"year":null}},"string":"Apr 7, 2026 to ?"},"duration":"Unknown","rating":"PG-13 - Teens 13 or older","score":null,"scored_by":null,"rank":null,"popularity":5285,"members":21934,"favorites":71,"synopsis":"Second season of Higeki no Genkyou to Naru Saikyou Gedou Last Boss Joou wa Tami no Tame ni Tsukushimasu..","background":"","season":"spring","year":2026,"broadcast":{"day":"Tuesdays","time":"22:00","timezone":"Asia\/Tokyo","string":"Tuesdays at 22:00 (JST)"},"producers":[],"licensors":[],"studios":[{"mal_id":28,"type":"anime","name":"OLM","url":"https:\/\/myanimelist.net\/anime\/producer\/28\/OLM"}],"genres":[{"mal_id":10,"type":"anime","name":"Fantasy","url":"https:\/\/myanimelist.net\/anime\/genre\/10\/Fantasy"}],"explicit_genres":[],"themes":[{"mal_id":62,"type":"anime","name":"Isekai","url":"https:\/\/myanimelist.net\/anime\/genre\/62\/Isekai"},{"mal_id":83,"type":"anime","name":"Villainess","url":"https:\/\/myanimelist.net\/anime\/genre\/83\/Villainess"}],"demographics":[{"mal_id":43,"type":"anime","name":"Josei","url":"https:\/\/myanimelist.net\/anime\/genre\/43\/Josei"}]},{"mal_id":61973,"url":"https:\/\/myanimelist.net\/anime\/61973\/Gate_Season_2__Jieitai_Kanoumi_nite_Kaku_Tatakaeri","images":{"jpg":{"image_url":"https:\/\/myanimelist.net\/images\/anime\/1217\/152123.jpg","small_image_url":"https:\/\/myanimelist.net\/images\/anime\/1217\/152123t.jpg","large_image_url":"https:\/\/myanimelist.net\/images\/anime\/1217\/152123l.jpg"},"webp":{"image_url":"https:\/\/myanimelist.net\/images\/anime\/1217\/152123.webp","small_image_url":"https:\/\/myanimelist.net\/images\/anime\/1217\/152123t.webp","large_image_url":"https:\/\/myanimelist.net\/images\/anime\/1217\/152123l.webp"}},"trailer":{"youtube_id":null,"url":null,"embed_url":"https:\/\/www.youtube-nocookie.com\/embed\/2P40hX1vK1E?enablejsapi=1&wmode=opaque&autoplay=1","images":{"image_url":null,"small_image_url":null,"medium_image_url":null,"large_image_url":null,"maximum_image_url":null}},"approved":true,"titles":[{"type":"Default","title":"Gate Season 2: Jieitai Kanoumi nite, Kaku Tatakaeri"},{"type":"Synonym","title":"Gate Season 2: Thus the JSDF Fought in Their Seas!"},{"type":"Japanese","title":"GATE SEASON2 \u81ea\u885b\u968a \u5f7c\u306e\u6d77\u306b\u3066\u3001\u65af\u304f\u6226\u3048\u308a"},{"type":"English","title":"Gate 2: Tides of Conflict"}],"title":"Gate Season 2: Jieitai Kanoumi nite, Kaku Tatakaeri","title_english":"Gate 2: Tides of Conflict","title_japanese":"GATE SEASON2 \u81ea\u885b\u968a \u5f7c\u306e\u6d77\u306b\u3066\u3001\u65af\u304f\u6226\u3048\u308a","title_synonyms":["Gate Season 2: Thus the JSDF Fought in Their Seas!"],"type":"TV","source":"Light novel","episodes":null,"status":"Not yet aired","airing":false,"aired":{"from":"2027-01-01T00:00:00+00:00","to":null,"prop":{"from":{"day":1,"month":1,"year":2027},"to":{"day":null,"month":null,"year":null}},"string":"2027 to ?"},"duration":"Unknown","rating":null,"score":null,"scored_by":null,"rank":null,"popularity":4451,"members":32481,"favorites":65,"synopsis":"Following the reopening of the mysterious 'Gate,' the Japanese Self-Defense Forces continue diplomatic and exploratory missions in the Special Region, a realm parallel to our world. When an American journalist is kidnapped in this region's troubled seas, an elite Japanese Maritime unit embarks on a high-stakes rescue mission. This new chapter of the acclaimed fantasy saga explores fresh adventures, diplomatic tensions, and thrilling action in a world beyond imagination.\n\n(Source: Oshi)","background":"","season":null,"year":null,"broadcast":{"day":null,"time":null,"timezone":null,"string":"Unknown"},"producers":[{"mal_id":3199,"type":"anime","name":"Oshi","url":"https:\/\/myanimelist.net\/anime\/producer\/3199\/Oshi"},{"mal_id":3200,"type":"anime","name":"Kasagi Labo","url":"https:\/\/myanimelist.net\/anime\/producer\/3200\/Kasagi_Labo"}],"licensors":[],"studios":[{"mal_id":1529,"type":"anime","name":"Studio M2","url":"https:\/\/myanimelist.net\/anime\/producer\/1529\/Studio_M2"}],"genres":[{"mal_id":1,"type":"anime","name":"Action","url":"https:\/\/myanimelist.net\/anime\/genre\/1\/Action"},{"mal_id":2,"type":"anime","name":"Adventure","url":"https:\/\/myanimelist.net\/anime\/genre\/2\/Adventure"},{"mal_id":10,"type":"anime","name":"Fantasy","url":"https:\/\/myanimelist.net\/anime\/genre\/10\/Fantasy"}],"explicit_genres":[],"themes":[{"mal_id":62,"type":"anime","name":"Isekai","url":"https:\/\/myanimelist.net\/anime\/genre\/62\/Isekai"},{"mal_id":38,"type":"anime","name":"Military","url":"https:\/\/myanimelist.net\/anime\/genre\/38\/Military"}],"demographics":[]},{"mal_id":62653,"url":"https:\/\/myanimelist.net\/anime\/62653\/One_Punch_Man_2nd_Season__Ichigeki_de_Wakaru_Maji_Furikaeri","images":{"jpg":{"image_url":"https:\/\/myanimelist.net\/images\/anime\/1604\/153958.jpg","small_image_url":"https:\/\/myanimelist.net\/images\/anime\/1604\/153958t.jpg","large_image_url":"https:\/\/myanimelist.net\/images\/anime\/1604\/153958l.jpg"},"webp":{"image_url":"https:\/\/myanimelist.net\/images\/anime\/1604\/153958.webp","small_image_url":"https:\/\/myanimelist.net\/images\/anime\/1604\/153958t.webp","large_image_url":"https:\/\/myanimelist.net\/images\/anime\/1604\/153958l.webp"}},"trailer":{"youtube_id":null,"url":null,"embed_url":null,"images":{"image_url":null,"small_image_url":null,"medium_image_url":null,"large_image_url":null,"maximum_image_url":null}},"approved":true,"titles":[{"type":"Default","title":"One Punch Man 2nd Season: Ichigeki de Wakaru! Maji Furikaeri!"},{"type":"Synonym","title":"One-Punch Man Season 3 Episode 0"},{"type":"Synonym","title":"One Punch-Man 2 Recap"},{"type":"Synonym","title":"One-Punch Man 2 Recap"},{"type":"Synonym","title":"OPM 2 Recap"},{"type":"Japanese","title":"\u4e00\u6483\u3067\u308f\u304b\u308b! ONE PUNCH MAN \u30ef\u30f3\u30d1\u30f3\u30de\u30f3 \u7b2c2\u671f\u30de\u30b8\u632f\u308a\u8fd4\u308a!"},{"type":"English","title":"One-Punch Man: Get It All in One Punch! Season 2 Serious Recap!"}],"title":"One Punch Man 2nd Season: Ichigeki de Wakaru! Maji Furikaeri!","title_english":"One-Punch Man: Get It All in One Punch! Season 2 Serious Recap!","title_japanese":"\u4e00\u6483\u3067\u308f\u304b\u308b! ONE PUNCH MAN \u30ef\u30f3\u30d1\u30f3\u30de\u30f3 \u7b2c2\u671f\u30de\u30b8\u632f\u308a\u8fd4\u308a!","title_synonyms":["One-Punch Man Season 3 Episode 0","One Punch-Man 2 Recap","One-Punch Man 2 Recap","OPM 2 Recap"],"type":"TV Special","source":"Web manga","episodes":1,"status":"Finished Airing","airing":false,"aired":{"from":"2025-10-05T00:00:00+00:00","to":null,"prop":{"from":{"day":5,"month":10,"year":2025},"to":{"day":null,"month":null,"year":null}},"string":"Oct 5, 2025"},"duration":"24 min","rating":"R - 17+ (violence & profanity)","score":6.27,"scored_by":3779,"rank":9207,"popularity":8082,"members":7533,"favorites":4,"synopsis":"Commemorative recap of One Punch Man 2nd Season.","background":"","season":null,"year":null,"broadcast":{"day":null,"time":null,"timezone":null,"string":null},"producers":[],"licensors":[],"studios":[{"mal_id":7,"type":"anime","name":"J.C.Staff","url":"https:\/\/myanimelist.net\/anime\/producer\/7\/JCStaff"}],"genres":[{"mal_id":1,"type":"anime","name":"Action","url":"https:\/\/myanimelist.net\/anime\/genre\/1\/Action"},{"mal_id":4,"type":"anime","name":"Comedy","url":"https:\/\/myanimelist.net\/anime\/genre\/4\/Comedy"}],"explicit_genres":[],"themes":[{"mal_id":50,"type":"anime","name":"Adult Cast","url":"https:\/\/myanimelist.net\/anime\/genre\/50\/Adult_Cast"},{"mal_id":20,"type":"anime","name":"Parody","url":"https:\/\/myanimelist.net\/anime\/genre\/20\/Parody"},{"mal_id":31,"type":"anime","name":"Super Power","url":"https:\/\/myanimelist.net\/anime\/genre\/31\/Super_Power"}],"demographics":[{"mal_id":42,"type":"anime","name":"Seinen","url":"https:\/\/myanimelist.net\/anime\/genre\/42\/Seinen"}]}]}