{"pagination":{"last_visible_page":1736,"has_next_page":true,"current_page":1,"items":{"count":5,"total":8676,"per_page":5}},"data":[{"mal_id":16498,"url":"https:\/\/myanimelist.net\/anime\/16498\/Shingeki_no_Kyojin","images":{"jpg":{"image_url":"https:\/\/myanimelist.net\/images\/anime\/10\/47347.jpg","small_image_url":"https:\/\/myanimelist.net\/images\/anime\/10\/47347t.jpg","large_image_url":"https:\/\/myanimelist.net\/images\/anime\/10\/47347l.jpg"},"webp":{"image_url":"https:\/\/myanimelist.net\/images\/anime\/10\/47347.webp","small_image_url":"https:\/\/myanimelist.net\/images\/anime\/10\/47347t.webp","large_image_url":"https:\/\/myanimelist.net\/images\/anime\/10\/47347l.webp"}},"trailer":{"youtube_id":null,"url":null,"embed_url":"https:\/\/www.youtube-nocookie.com\/embed\/LHtdKWJdif4?enablejsapi=1&wmode=opaque&autoplay=1","images":{"image_url":null,"small_image_url":null,"medium_image_url":null,"large_image_url":null,"maximum_image_url":null}},"approved":true,"titles":[{"type":"Default","title":"Shingeki no Kyojin"},{"type":"Synonym","title":"AoT"},{"type":"Synonym","title":"SnK"},{"type":"Japanese","title":"\u9032\u6483\u306e\u5de8\u4eba"},{"type":"English","title":"Attack on Titan"},{"type":"German","title":"Attack on Titan"},{"type":"Spanish","title":"Ataque a los Titanes"},{"type":"French","title":"L'Attaque des Titans"}],"title":"Shingeki no Kyojin","title_english":"Attack on Titan","title_japanese":"\u9032\u6483\u306e\u5de8\u4eba","title_synonyms":["AoT","SnK"],"type":"TV","source":"Manga","episodes":25,"status":"Finished Airing","airing":false,"aired":{"from":"2013-04-07T00:00:00+00:00","to":"2013-09-29T00:00:00+00:00","prop":{"from":{"day":7,"month":4,"year":2013},"to":{"day":29,"month":9,"year":2013}},"string":"Apr 7, 2013 to Sep 29, 2013"},"duration":"24 min per ep","rating":"R - 17+ (violence & profanity)","score":8.57,"scored_by":3046927,"rank":123,"popularity":1,"members":4328874,"favorites":187912,"synopsis":"Centuries ago, mankind was slaughtered to near extinction by monstrous humanoid creatures called Titans, forcing humans to hide in fear behind enormous concentric walls. What makes these giants truly terrifying is that their taste for human flesh is not born out of hunger but what appears to be out of pleasure. To ensure their survival, the remnants of humanity began living within defensive barriers, resulting in one hundred years without a single titan encounter. However, that fragile calm is soon shattered when a colossal Titan manages to breach the supposedly impregnable outer wall, reigniting the fight for survival against the man-eating abominations.\n\nAfter witnessing a horrific personal loss at the hands of the invading creatures, Eren Yeager dedicates his life to their eradication by enlisting into the Survey Corps, an elite military unit that combats the merciless humanoids outside the protection of the walls. Eren, his adopted sister Mikasa Ackerman, and his childhood friend Armin Arlert join the brutal war against the Titans and race to discover a way of defeating them before the last walls are breached.\n\n[Written by MAL Rewrite]","background":"Shingeki no Kyojin adapts content from the first eight volumes of Hajime Isayama's award-winning manga of the same name. The anime won the Animation of the Year in the Television category at the Tokyo Anime Award Festival in 2014.","season":"spring","year":2013,"broadcast":{"day":"Sundays","time":"01:58","timezone":"Asia\/Tokyo","string":"Sundays at 01:58 (JST)"},"producers":[{"mal_id":10,"type":"anime","name":"Production I.G","url":"https:\/\/myanimelist.net\/anime\/producer\/10\/Production_IG"},{"mal_id":53,"type":"anime","name":"Dentsu","url":"https:\/\/myanimelist.net\/anime\/producer\/53\/Dentsu"},{"mal_id":143,"type":"anime","name":"Mainichi Broadcasting System","url":"https:\/\/myanimelist.net\/anime\/producer\/143\/Mainichi_Broadcasting_System"},{"mal_id":144,"type":"anime","name":"Pony Canyon","url":"https:\/\/myanimelist.net\/anime\/producer\/144\/Pony_Canyon"},{"mal_id":159,"type":"anime","name":"Kodansha","url":"https:\/\/myanimelist.net\/anime\/producer\/159\/Kodansha"},{"mal_id":1557,"type":"anime","name":"Pony Canyon Enterprises","url":"https:\/\/myanimelist.net\/anime\/producer\/1557\/Pony_Canyon_Enterprises"}],"licensors":[{"mal_id":102,"type":"anime","name":"Funimation","url":"https:\/\/myanimelist.net\/anime\/producer\/102\/Funimation"}],"studios":[{"mal_id":858,"type":"anime","name":"Wit Studio","url":"https:\/\/myanimelist.net\/anime\/producer\/858\/Wit_Studio"}],"genres":[{"mal_id":1,"type":"anime","name":"Action","url":"https:\/\/myanimelist.net\/anime\/genre\/1\/Action"},{"mal_id":46,"type":"anime","name":"Award Winning","url":"https:\/\/myanimelist.net\/anime\/genre\/46\/Award_Winning"},{"mal_id":8,"type":"anime","name":"Drama","url":"https:\/\/myanimelist.net\/anime\/genre\/8\/Drama"},{"mal_id":41,"type":"anime","name":"Suspense","url":"https:\/\/myanimelist.net\/anime\/genre\/41\/Suspense"}],"explicit_genres":[],"themes":[{"mal_id":58,"type":"anime","name":"Gore","url":"https:\/\/myanimelist.net\/anime\/genre\/58\/Gore"},{"mal_id":38,"type":"anime","name":"Military","url":"https:\/\/myanimelist.net\/anime\/genre\/38\/Military"},{"mal_id":76,"type":"anime","name":"Survival","url":"https:\/\/myanimelist.net\/anime\/genre\/76\/Survival"}],"demographics":[{"mal_id":27,"type":"anime","name":"Shounen","url":"https:\/\/myanimelist.net\/anime\/genre\/27\/Shounen"}]},{"mal_id":1535,"url":"https:\/\/myanimelist.net\/anime\/1535\/Death_Note","images":{"jpg":{"image_url":"https:\/\/myanimelist.net\/images\/anime\/1079\/138100.jpg","small_image_url":"https:\/\/myanimelist.net\/images\/anime\/1079\/138100t.jpg","large_image_url":"https:\/\/myanimelist.net\/images\/anime\/1079\/138100l.jpg"},"webp":{"image_url":"https:\/\/myanimelist.net\/images\/anime\/1079\/138100.webp","small_image_url":"https:\/\/myanimelist.net\/images\/anime\/1079\/138100t.webp","large_image_url":"https:\/\/myanimelist.net\/images\/anime\/1079\/138100l.webp"}},"trailer":{"youtube_id":null,"url":null,"embed_url":"https:\/\/www.youtube-nocookie.com\/embed\/Vt_3c8BgxV4?enablejsapi=1&wmode=opaque&autoplay=1","images":{"image_url":null,"small_image_url":null,"medium_image_url":null,"large_image_url":null,"maximum_image_url":null}},"approved":true,"titles":[{"type":"Default","title":"Death Note"},{"type":"Synonym","title":"DN"},{"type":"Japanese","title":"\u30c7\u30b9\u30ce\u30fc\u30c8"},{"type":"English","title":"Death Note"}],"title":"Death Note","title_english":"Death Note","title_japanese":"\u30c7\u30b9\u30ce\u30fc\u30c8","title_synonyms":["DN"],"type":"TV","source":"Manga","episodes":37,"status":"Finished Airing","airing":false,"aired":{"from":"2006-10-04T00:00:00+00:00","to":"2007-06-27T00:00:00+00:00","prop":{"from":{"day":4,"month":10,"year":2006},"to":{"day":27,"month":6,"year":2007}},"string":"Oct 4, 2006 to Jun 27, 2007"},"duration":"23 min per ep","rating":"R - 17+ (violence & profanity)","score":8.62,"scored_by":2986007,"rank":96,"popularity":2,"members":4268262,"favorites":185051,"synopsis":"Brutal murders, petty thefts, and senseless violence pollute the human world. In contrast, the realm of death gods is a humdrum, unchanging gambling den. The ingenious 17-year-old Japanese student Light Yagami and sadistic god of death Ryuk share one belief: their worlds are rotten.\n\nFor his own amusement, Ryuk drops his Death Note into the human world. Light stumbles upon it, deeming the first of its rules ridiculous: the human whose name is written in this note shall die. However, the temptation is too great, and Light experiments by writing a felon's name, which disturbingly enacts his first murder.\n\nAware of the terrifying godlike power that has fallen into his hands, Light\u2014under the alias Kira\u2014follows his wicked sense of justice with the ultimate goal of cleansing the world of all evil-doers. The meticulous mastermind detective L is already on his trail, but as Light's brilliance rivals L's, the grand chase for Kira turns into an intense battle of wits that can only end when one of them is dead.\n\n[Written by MAL Rewrite]","background":"","season":"fall","year":2006,"broadcast":{"day":"Wednesdays","time":"00:56","timezone":"Asia\/Tokyo","string":"Wednesdays at 00:56 (JST)"},"producers":[{"mal_id":29,"type":"anime","name":"VAP","url":"https:\/\/myanimelist.net\/anime\/producer\/29\/VAP"},{"mal_id":1003,"type":"anime","name":"Nippon Television Network","url":"https:\/\/myanimelist.net\/anime\/producer\/1003\/Nippon_Television_Network"},{"mal_id":1365,"type":"anime","name":"Shueisha","url":"https:\/\/myanimelist.net\/anime\/producer\/1365\/Shueisha"},{"mal_id":1791,"type":"anime","name":"D.N. Dream Partners","url":"https:\/\/myanimelist.net\/anime\/producer\/1791\/DN_Dream_Partners"}],"licensors":[{"mal_id":119,"type":"anime","name":"VIZ Media","url":"https:\/\/myanimelist.net\/anime\/producer\/119\/VIZ_Media"}],"studios":[{"mal_id":11,"type":"anime","name":"Madhouse","url":"https:\/\/myanimelist.net\/anime\/producer\/11\/Madhouse"}],"genres":[{"mal_id":37,"type":"anime","name":"Supernatural","url":"https:\/\/myanimelist.net\/anime\/genre\/37\/Supernatural"},{"mal_id":41,"type":"anime","name":"Suspense","url":"https:\/\/myanimelist.net\/anime\/genre\/41\/Suspense"}],"explicit_genres":[],"themes":[{"mal_id":40,"type":"anime","name":"Psychological","url":"https:\/\/myanimelist.net\/anime\/genre\/40\/Psychological"}],"demographics":[{"mal_id":27,"type":"anime","name":"Shounen","url":"https:\/\/myanimelist.net\/anime\/genre\/27\/Shounen"}]},{"mal_id":5114,"url":"https:\/\/myanimelist.net\/anime\/5114\/Fullmetal_Alchemist__Brotherhood","images":{"jpg":{"image_url":"https:\/\/myanimelist.net\/images\/anime\/1208\/94745.jpg","small_image_url":"https:\/\/myanimelist.net\/images\/anime\/1208\/94745t.jpg","large_image_url":"https:\/\/myanimelist.net\/images\/anime\/1208\/94745l.jpg"},"webp":{"image_url":"https:\/\/myanimelist.net\/images\/anime\/1208\/94745.webp","small_image_url":"https:\/\/myanimelist.net\/images\/anime\/1208\/94745t.webp","large_image_url":"https:\/\/myanimelist.net\/images\/anime\/1208\/94745l.webp"}},"trailer":{"youtube_id":null,"url":null,"embed_url":"https:\/\/www.youtube-nocookie.com\/embed\/1ac3_YdSSy0?enablejsapi=1&wmode=opaque&autoplay=1","images":{"image_url":null,"small_image_url":null,"medium_image_url":null,"large_image_url":null,"maximum_image_url":null}},"approved":true,"titles":[{"type":"Default","title":"Fullmetal Alchemist: Brotherhood"},{"type":"Synonym","title":"Hagane no Renkinjutsushi: Fullmetal Alchemist"},{"type":"Synonym","title":"Fullmetal Alchemist (2009)"},{"type":"Synonym","title":"FMA"},{"type":"Synonym","title":"FMAB"},{"type":"Japanese","title":"\u92fc\u306e\u932c\u91d1\u8853\u5e2b FULLMETAL ALCHEMIST"},{"type":"English","title":"Fullmetal Alchemist: Brotherhood"},{"type":"French","title":"Fullmetal Alchemist Brotherhood"}],"title":"Fullmetal Alchemist: Brotherhood","title_english":"Fullmetal Alchemist: Brotherhood","title_japanese":"\u92fc\u306e\u932c\u91d1\u8853\u5e2b FULLMETAL ALCHEMIST","title_synonyms":["Hagane no Renkinjutsushi: Fullmetal Alchemist","Fullmetal Alchemist (2009)","FMA","FMAB"],"type":"TV","source":"Manga","episodes":64,"status":"Finished Airing","airing":false,"aired":{"from":"2009-04-05T00:00:00+00:00","to":"2010-07-04T00:00:00+00:00","prop":{"from":{"day":5,"month":4,"year":2009},"to":{"day":4,"month":7,"year":2010}},"string":"Apr 5, 2009 to Jul 4, 2010"},"duration":"24 min per ep","rating":"R - 17+ (violence & profanity)","score":9.11,"scored_by":2297471,"rank":3,"popularity":3,"members":3657674,"favorites":241545,"synopsis":"After a horrific alchemy experiment goes wrong in the Elric household, brothers Edward and Alphonse are left in a catastrophic new reality. Ignoring the alchemical principle banning human transmutation, the boys attempted to bring their recently deceased mother back to life. Instead, they suffered brutal personal loss: Alphonse's body disintegrated while Edward lost a leg and then sacrificed an arm to keep Alphonse's soul in the physical realm by binding it to a hulking suit of armor.\n\nThe brothers are rescued by their neighbor Pinako Rockbell and her granddaughter Winry. Known as a bio-mechanical engineering prodigy, Winry creates prosthetic limbs for Edward by utilizing \"automail,\" a tough, versatile metal used in robots and combat armor. After years of training, the Elric brothers set off on a quest to restore their bodies by locating the Philosopher's Stone\u2014a powerful gem that allows an alchemist to defy the traditional laws of Equivalent Exchange.\n\nAs Edward becomes an infamous alchemist and gains the nickname \"Fullmetal,\" the boys' journey embroils them in a growing conspiracy that threatens the fate of the world.\n\n[Written by MAL Rewrite]","background":"","season":"spring","year":2009,"broadcast":{"day":"Sundays","time":"17:00","timezone":"Asia\/Tokyo","string":"Sundays at 17:00 (JST)"},"producers":[{"mal_id":17,"type":"anime","name":"Aniplex","url":"https:\/\/myanimelist.net\/anime\/producer\/17\/Aniplex"},{"mal_id":58,"type":"anime","name":"Square Enix","url":"https:\/\/myanimelist.net\/anime\/producer\/58\/Square_Enix"},{"mal_id":143,"type":"anime","name":"Mainichi Broadcasting System","url":"https:\/\/myanimelist.net\/anime\/producer\/143\/Mainichi_Broadcasting_System"},{"mal_id":1499,"type":"anime","name":"Techno Sound","url":"https:\/\/myanimelist.net\/anime\/producer\/1499\/Techno_Sound"}],"licensors":[{"mal_id":102,"type":"anime","name":"Funimation","url":"https:\/\/myanimelist.net\/anime\/producer\/102\/Funimation"},{"mal_id":493,"type":"anime","name":"Aniplex of America","url":"https:\/\/myanimelist.net\/anime\/producer\/493\/Aniplex_of_America"}],"studios":[{"mal_id":4,"type":"anime","name":"Bones","url":"https:\/\/myanimelist.net\/anime\/producer\/4\/Bones"}],"genres":[{"mal_id":1,"type":"anime","name":"Action","url":"https:\/\/myanimelist.net\/anime\/genre\/1\/Action"},{"mal_id":2,"type":"anime","name":"Adventure","url":"https:\/\/myanimelist.net\/anime\/genre\/2\/Adventure"},{"mal_id":8,"type":"anime","name":"Drama","url":"https:\/\/myanimelist.net\/anime\/genre\/8\/Drama"},{"mal_id":10,"type":"anime","name":"Fantasy","url":"https:\/\/myanimelist.net\/anime\/genre\/10\/Fantasy"}],"explicit_genres":[],"themes":[{"mal_id":38,"type":"anime","name":"Military","url":"https:\/\/myanimelist.net\/anime\/genre\/38\/Military"}],"demographics":[{"mal_id":27,"type":"anime","name":"Shounen","url":"https:\/\/myanimelist.net\/anime\/genre\/27\/Shounen"}]},{"mal_id":30276,"url":"https:\/\/myanimelist.net\/anime\/30276\/One_Punch_Man","images":{"jpg":{"image_url":"https:\/\/myanimelist.net\/images\/anime\/12\/76049.jpg","small_image_url":"https:\/\/myanimelist.net\/images\/anime\/12\/76049t.jpg","large_image_url":"https:\/\/myanimelist.net\/images\/anime\/12\/76049l.jpg"},"webp":{"image_url":"https:\/\/myanimelist.net\/images\/anime\/12\/76049.webp","small_image_url":"https:\/\/myanimelist.net\/images\/anime\/12\/76049t.webp","large_image_url":"https:\/\/myanimelist.net\/images\/anime\/12\/76049l.webp"}},"trailer":{"youtube_id":null,"url":null,"embed_url":"https:\/\/www.youtube-nocookie.com\/embed\/ExUMiF1L0HA?enablejsapi=1&wmode=opaque&autoplay=1","images":{"image_url":null,"small_image_url":null,"medium_image_url":null,"large_image_url":null,"maximum_image_url":null}},"approved":true,"titles":[{"type":"Default","title":"One Punch Man"},{"type":"Synonym","title":"One Punch-Man"},{"type":"Synonym","title":"OPM"},{"type":"Japanese","title":"\u30ef\u30f3\u30d1\u30f3\u30de\u30f3"},{"type":"English","title":"One-Punch Man"}],"title":"One Punch Man","title_english":"One-Punch Man","title_japanese":"\u30ef\u30f3\u30d1\u30f3\u30de\u30f3","title_synonyms":["One Punch-Man","OPM"],"type":"TV","source":"Web manga","episodes":12,"status":"Finished Airing","airing":false,"aired":{"from":"2015-10-05T00:00:00+00:00","to":"2015-12-21T00:00:00+00:00","prop":{"from":{"day":5,"month":10,"year":2015},"to":{"day":21,"month":12,"year":2015}},"string":"Oct 5, 2015 to Dec 21, 2015"},"duration":"24 min per ep","rating":"R - 17+ (violence & profanity)","score":8.48,"scored_by":2410788,"rank":172,"popularity":4,"members":3499864,"favorites":66394,"synopsis":"The seemingly unimpressive Saitama has a rather unique hobby: being a hero. In order to pursue his childhood dream, Saitama relentlessly trained for three years, losing all of his hair in the process. Now, Saitama is so powerful, he can defeat any enemy with just one punch. However, having no one capable of matching his strength has led Saitama to an unexpected problem\u2014he is no longer able to enjoy the thrill of battling and has become quite bored.\n\nOne day, Saitama catches the attention of 19-year-old cyborg Genos, who witnesses his power and wishes to become Saitama's disciple. Genos proposes that the two join the Hero Association in order to become certified heroes that will be recognized for their positive contributions to society. Saitama, who is shocked that no one knows who he is, quickly agrees. Meeting new allies and taking on new foes, Saitama embarks on a new journey as a member of the Hero Association to experience the excitement of battle he once felt.\n\n[Written by MAL Rewrite]","background":"Episodes 1 and 2 were previewed at a screening in Saitama city cultural center (small hall) on September 6, 2015. Regular broadcasting began on October 5, 2015. One Punch Man is based on Yusuke Murata's manga remake of ONE's original web comic. The anime adapts the first seven volumes of the manga.","season":"fall","year":2015,"broadcast":{"day":"Mondays","time":"01:05","timezone":"Asia\/Tokyo","string":"Mondays at 01:05 (JST)"},"producers":[{"mal_id":16,"type":"anime","name":"TV Tokyo","url":"https:\/\/myanimelist.net\/anime\/producer\/16\/TV_Tokyo"},{"mal_id":23,"type":"anime","name":"Bandai Visual","url":"https:\/\/myanimelist.net\/anime\/producer\/23\/Bandai_Visual"},{"mal_id":104,"type":"anime","name":"Lantis","url":"https:\/\/myanimelist.net\/anime\/producer\/104\/Lantis"},{"mal_id":142,"type":"anime","name":"Asatsu DK","url":"https:\/\/myanimelist.net\/anime\/producer\/142\/Asatsu_DK"},{"mal_id":1121,"type":"anime","name":"Banpresto","url":"https:\/\/myanimelist.net\/anime\/producer\/1121\/Banpresto"},{"mal_id":1261,"type":"anime","name":"Good Smile Company","url":"https:\/\/myanimelist.net\/anime\/producer\/1261\/Good_Smile_Company"},{"mal_id":1365,"type":"anime","name":"Shueisha","url":"https:\/\/myanimelist.net\/anime\/producer\/1365\/Shueisha"},{"mal_id":1501,"type":"anime","name":"JR East Marketing & Communications","url":"https:\/\/myanimelist.net\/anime\/producer\/1501\/JR_East_Marketing___Communications"}],"licensors":[{"mal_id":119,"type":"anime","name":"VIZ Media","url":"https:\/\/myanimelist.net\/anime\/producer\/119\/VIZ_Media"}],"studios":[{"mal_id":11,"type":"anime","name":"Madhouse","url":"https:\/\/myanimelist.net\/anime\/producer\/11\/Madhouse"}],"genres":[{"mal_id":1,"type":"anime","name":"Action","url":"https:\/\/myanimelist.net\/anime\/genre\/1\/Action"},{"mal_id":4,"type":"anime","name":"Comedy","url":"https:\/\/myanimelist.net\/anime\/genre\/4\/Comedy"}],"explicit_genres":[],"themes":[{"mal_id":50,"type":"anime","name":"Adult Cast","url":"https:\/\/myanimelist.net\/anime\/genre\/50\/Adult_Cast"},{"mal_id":20,"type":"anime","name":"Parody","url":"https:\/\/myanimelist.net\/anime\/genre\/20\/Parody"},{"mal_id":31,"type":"anime","name":"Super Power","url":"https:\/\/myanimelist.net\/anime\/genre\/31\/Super_Power"}],"demographics":[{"mal_id":42,"type":"anime","name":"Seinen","url":"https:\/\/myanimelist.net\/anime\/genre\/42\/Seinen"}]},{"mal_id":38000,"url":"https:\/\/myanimelist.net\/anime\/38000\/Kimetsu_no_Yaiba","images":{"jpg":{"image_url":"https:\/\/myanimelist.net\/images\/anime\/1286\/99889.jpg","small_image_url":"https:\/\/myanimelist.net\/images\/anime\/1286\/99889t.jpg","large_image_url":"https:\/\/myanimelist.net\/images\/anime\/1286\/99889l.jpg"},"webp":{"image_url":"https:\/\/myanimelist.net\/images\/anime\/1286\/99889.webp","small_image_url":"https:\/\/myanimelist.net\/images\/anime\/1286\/99889t.webp","large_image_url":"https:\/\/myanimelist.net\/images\/anime\/1286\/99889l.webp"}},"trailer":{"youtube_id":null,"url":null,"embed_url":"https:\/\/www.youtube-nocookie.com\/embed\/6vMuWuWlW4I?enablejsapi=1&wmode=opaque&autoplay=1","images":{"image_url":null,"small_image_url":null,"medium_image_url":null,"large_image_url":null,"maximum_image_url":null}},"approved":true,"titles":[{"type":"Default","title":"Kimetsu no Yaiba"},{"type":"Synonym","title":"Blade of Demon Destruction"},{"type":"Japanese","title":"\u9b3c\u6ec5\u306e\u5203"},{"type":"English","title":"Demon Slayer: Kimetsu no Yaiba"},{"type":"German","title":"Demon Slayer"},{"type":"Spanish","title":"Guardianes De La Noche: Kimetsu no Yaiba"},{"type":"French","title":"Demon Slayer"}],"title":"Kimetsu no Yaiba","title_english":"Demon Slayer: Kimetsu no Yaiba","title_japanese":"\u9b3c\u6ec5\u306e\u5203","title_synonyms":["Blade of Demon Destruction"],"type":"TV","source":"Manga","episodes":26,"status":"Finished Airing","airing":false,"aired":{"from":"2019-04-06T00:00:00+00:00","to":"2019-09-28T00:00:00+00:00","prop":{"from":{"day":6,"month":4,"year":2019},"to":{"day":28,"month":9,"year":2019}},"string":"Apr 6, 2019 to Sep 28, 2019"},"duration":"23 min per ep","rating":"R - 17+ (violence & profanity)","score":8.41,"scored_by":2346342,"rank":218,"popularity":5,"members":3419211,"favorites":94836,"synopsis":"Ever since the death of his father, the burden of supporting the family has fallen upon Tanjirou Kamado's shoulders. Though living impoverished on a remote mountain, the Kamado family are able to enjoy a relatively peaceful and happy life. One day, Tanjirou decides to go down to the local village to make a little money selling charcoal. On his way back, night falls, forcing Tanjirou to take shelter in the house of a strange man, who warns him of the existence of flesh-eating demons that lurk in the woods at night.\n\nWhen he finally arrives back home the next day, he is met with a horrifying sight\u2014his whole family has been slaughtered. Worse still, the sole survivor is his sister Nezuko, who has been turned into a bloodthirsty demon. Consumed by rage and hatred, Tanjirou swears to avenge his family and stay by his only remaining sibling. Alongside the mysterious group calling themselves the Demon Slayer Corps, Tanjirou will do whatever it takes to slay the demons and protect the remnants of his beloved sister's humanity.\n\n[Written by MAL Rewrite]","background":"The anime covers chapters 1 to 53 of the manga. Kimetsu no Yaiba won the Animation of the Year award in the Television category at the Tokyo Anime Award Festival in 2020.","season":"spring","year":2019,"broadcast":{"day":"Saturdays","time":"23:30","timezone":"Asia\/Tokyo","string":"Saturdays at 23:30 (JST)"},"producers":[{"mal_id":17,"type":"anime","name":"Aniplex","url":"https:\/\/myanimelist.net\/anime\/producer\/17\/Aniplex"},{"mal_id":719,"type":"anime","name":"Studio Mausu","url":"https:\/\/myanimelist.net\/anime\/producer\/719\/Studio_Mausu"},{"mal_id":1365,"type":"anime","name":"Shueisha","url":"https:\/\/myanimelist.net\/anime\/producer\/1365\/Shueisha"}],"licensors":[{"mal_id":493,"type":"anime","name":"Aniplex of America","url":"https:\/\/myanimelist.net\/anime\/producer\/493\/Aniplex_of_America"}],"studios":[{"mal_id":43,"type":"anime","name":"ufotable","url":"https:\/\/myanimelist.net\/anime\/producer\/43\/ufotable"}],"genres":[{"mal_id":1,"type":"anime","name":"Action","url":"https:\/\/myanimelist.net\/anime\/genre\/1\/Action"},{"mal_id":46,"type":"anime","name":"Award Winning","url":"https:\/\/myanimelist.net\/anime\/genre\/46\/Award_Winning"},{"mal_id":37,"type":"anime","name":"Supernatural","url":"https:\/\/myanimelist.net\/anime\/genre\/37\/Supernatural"}],"explicit_genres":[],"themes":[{"mal_id":13,"type":"anime","name":"Historical","url":"https:\/\/myanimelist.net\/anime\/genre\/13\/Historical"}],"demographics":[{"mal_id":27,"type":"anime","name":"Shounen","url":"https:\/\/myanimelist.net\/anime\/genre\/27\/Shounen"}]}]}